{"info":{"_postman_id":"6af11099-5aee-43f4-ba8b-59761880470a","name":"API Documentation Examples","schema":"https://schema.getpostman.com/json/collection/v2.0.0/collection.json"},"item":[{"name":"Sanity","item":[{"name":"New Request","event":[{"listen":"test","script":{"type":"text/javascript","exec":["pm.test(\"Status code is 200\", function () {\r","    pm.response.to.have.status(200);\r","});\r","\r","pm.test(\"Body matches string\", function () {\r","    pm.expect(pm.response.text()).to.include(\"string_you_want_to_search\");\r","});\r",""]}}],"id":"4d25e0f8-eefc-41b4-921c-f5a64f499eee","protocolProfileBehavior":{"disableBodyPruning":true},"request":{"method":"GET","header":[],"body":{"mode":"raw","raw":"{\r\n    \"page\": 2,\r\n    \"per_page\": 6,\r\n    \"total\": 12,\r\n    \"total_pages\": 2,\r\n    \"data\": [\r\n        {\r\n            \"id\": 7,\r\n            \"email\": \"michael.lawson@reqres.in\",\r\n            \"first_name\": \"Michael\",\r\n            \"last_name\": \"Lawson\",\r\n            \"avatar\": \"https://reqres.in/img/faces/7-image.jpg\"\r\n        },\r\n        {\r\n            \"id\": 8,\r\n            \"email\": \"lindsay.ferguson@reqres.in\",\r\n            \"first_name\": \"Lindsay\",\r\n            \"last_name\": \"Ferguson\",\r\n            \"avatar\": \"https://reqres.in/img/faces/8-image.jpg\"\r\n        },\r\n        {\r\n            \"id\": 9,\r\n            \"email\": \"tobias.funke@reqres.in\",\r\n            \"first_name\": \"Tobias\",\r\n            \"last_name\": \"Funke\",\r\n            \"avatar\": \"https://reqres.in/img/faces/9-image.jpg\"\r\n        },\r\n        {\r\n            \"id\": 10,\r\n            \"email\": \"byron.fields@reqres.in\",\r\n            \"first_name\": \"Byron\",\r\n            \"last_name\": \"Fields\",\r\n            \"avatar\": \"https://reqres.in/img/faces/10-image.jpg\"\r\n        },\r\n        {\r\n            \"id\": 11,\r\n            \"email\": \"george.edwards@reqres.in\",\r\n            \"first_name\": \"George\",\r\n            \"last_name\": \"Edwards\",\r\n            \"avatar\": \"https://reqres.in/img/faces/11-image.jpg\"\r\n        },\r\n        {\r\n            \"id\": 12,\r\n            \"email\": \"rachel.howell@reqres.in\",\r\n            \"first_name\": \"Rachel\",\r\n            \"last_name\": \"Howell\",\r\n            \"avatar\": \"https://reqres.in/img/faces/12-image.jpg\"\r\n        }\r\n    ],\r\n    \"support\": {\r\n        \"url\": \"https://reqres.in/#support-heading\",\r\n        \"text\": \"To keep ReqRes free, contributions towards server costs are appreciated!\"\r\n    }\r\n}\r\n","options":{"raw":{"language":"json"}}},"url":{"raw":"https://reqres.in/api/users?page=2","protocol":"https","host":["reqres","in"],"path":["api","users"],"query":[{"key":"page","value":"2"}]}},"response":[]},{"name":"New Request","id":"ebf0b67e-b56a-449e-9acd-78687aafaa33","request":{"method":"POST","header":[],"url":"https://reqres.in/api/users"},"response":[]}],"id":"f967e13a-afec-43a0-9704-f511bbc58ecb"},{"name":"Regression","item":[{"name":"https://reqres.in/api/users/2","id":"0d80b2cd-1187-43e0-b032-4ce600928750","request":{"method":"PUT","header":[],"url":"https://reqres.in/api/users/2"},"response":[]},{"name":"https://reqres.in/api/users/2","id":"d10267e7-68f5-4c3d-abe9-de1dc1e4c1ea","request":{"method":"DELETE","header":[],"url":"https://reqres.in/api/users/2"},"response":[]}],"id":"d584e5b9-70a3-44d2-8c47-89bff2c0d9cf"}]}